{
  "firestore": {
    "rules": "rules/firestore.rules",
    "indexes": "rules/firestore.indexes.json"
  },
  "emulators": {
    "auth": {
      "port": 9099
    },
    "firestore": {
      "port": 8080
    },
    "ui": {
      "enabled": true
    },
    "hosting": {
      "port": 5000
    }
  },
  "hosting": {
    "public": "build",
    "ignore": ["firebase.json", "**/.*", "**/node_modules/**"],
    "rewrites": [
      {
        "source": "**",
        "destination": "/index.html"
      }
    ]
  }
}
